{
  "kind": "collectionType",
  "collectionName": "assignments",
  "info": {
    "name": "assignment"
  },
  "options": {
    "increments": true,
    "timestamps": true,
    "draftAndPublish": true
  },
  "attributes": {
    "client": {
      "model": "client"
    },
    "employee": {
      "plugin": "users-permissions",
      "model": "user"
    },
    "fromdate": {
      "type": "datetime"
    },
    "todate": {
      "type": "datetime"
    },
    "priority": {
      "type": "enumeration",
      "enum": [
        "high",
        "medium",
        "low"
      ]
    },
    "status": {
      "type": "enumeration",
      "enum": [
        "active",
        "inprogress",
        "cancelled",
        "completed"
      ]
    },
    "attendanceid": {
      "model": "attendance"
    }
  }
}
