{
  "routes": [
    {
      "method": "GET",
      "path": "/content-types/app/:uid",
      "handler": "ContentTypes.findContentType"
    },
    {
      "method": "GET",
      "path": "/explorer/app/:model/relation-list/:targetField",
      "handler": "ContentManager.findRelationList",
      "config": {
        "policies": []
      }
    },
    {
      "method": "POST",
      "path": "/explorer/app/:model",
      "handler": "ContentManager.createRecord",
      "config": {
        "policies": []
      }
    },
    {
      "method": "GET",
      "path": "/explorer/app/:model",
      "handler": "ContentManager.findRecord",
      "config": {
        "policies": []
      }
    },
    {
      "method": "GET",
      "path": "/explorer/app/:model/:id",
      "handler": "ContentManager.findOneRecord",
      "config": {
        "policies": []
      }
    }, {
      "method": "PUT",
      "path": "/explorer/app/:model/:id",
      "handler": "ContentManager.updateRecord",
      "config": {
        "policies": []
      }
    },{
      "method": "DELETE",
      "path": "/explorer/app/:model/:id",
      "handler": "ContentManager.deleteRecord",
      "config": {
        "policies": []
      }
    }, {
      "method": "GET",
      "path": "/explorer/:model/count",
      "handler": "ContentManager.countRecord",
      "config": {
        "policies": []
      }
    }
  ]
}