{
  "kind": "collectionType",
  "collectionName": "attendances",
  "info": {
    "name": "attendance"
  },
  "options": {
    "increments": true,
    "timestamps": true,
    "draftAndPublish": true
  },
  "attributes": {
    "fromdate": {
      "type": "date"
    },
    "intime": {
      "type": "time"
    },
    "outtime": {
      "type": "time"
    },
    "status": {
      "type": "enumeration",
      "enum": [
        "present",
        "absent",
        "leave"
      ]
    },
    "employee": {
      "plugin": "users-permissions",
      "model": "user"
    },
    "todate": {
      "type": "date"
    },
    "selfie": {
      "model": "file",
      "via": "related",
      "allowedTypes": [
        "images",
        "files",
        "videos"
      ],
      "plugin": "upload",
      "required": false
    },
    "reason": {
      "type": "richtext"
    }
  }
}
